\BOOKMARK [0][-]{chapter.1}{Probability}{}% 1
\BOOKMARK [1][-]{section.1.1}{Methods of Solving Problems}{chapter.1}% 2
\BOOKMARK [1][-]{section.1.2}{Problems and Solutions}{chapter.1}% 3
\BOOKMARK [2][-]{subsection.1.2.1}{Codeforces 100371-H: Granite of Science}{section.1.2}% 4
\BOOKMARK [0][-]{chapter.2}{Heaps}{}% 5
\BOOKMARK [1][-]{section.2.1}{Question Patterns}{chapter.2}% 6
\BOOKMARK [2][-]{subsection.2.1.1}{Generic Types}{section.2.1}% 7
\BOOKMARK [2][-]{subsection.2.1.2}{Specific Illustrations}{section.2.1}% 8
\BOOKMARK [1][-]{section.2.2}{Elementary Theory}{chapter.2}% 9
\BOOKMARK [2][-]{subsection.2.2.1}{Basic Operations}{section.2.2}% 10
\BOOKMARK [2][-]{subsection.2.2.2}{Implementation Code}{section.2.2}% 11
\BOOKMARK [0][-]{chapter.3}{Range Queries}{}% 12
\BOOKMARK [1][-]{section.3.1}{Square Root Decomposition}{chapter.3}% 13
\BOOKMARK [2][-]{subsection.3.1.1}{Motivating Examples}{section.3.1}% 14
\BOOKMARK [1][-]{section.3.2}{Mo's Algorithm}{chapter.3}% 15
\BOOKMARK [1][-]{section.3.3}{Segment Trees}{chapter.3}% 16
\BOOKMARK [2][-]{subsection.3.3.1}{Iterative Implementation}{section.3.3}% 17
\BOOKMARK [0][-]{chapter.4}{Dynamic Programming}{}% 18
\BOOKMARK [1][-]{section.4.1}{Matrix Exponentiation}{chapter.4}% 19
\BOOKMARK [1][-]{section.4.2}{Bitmasks}{chapter.4}% 20
\BOOKMARK [2][-]{subsection.4.2.1}{Classical Bitmasks}{section.4.2}% 21
\BOOKMARK [2][-]{subsection.4.2.2}{Sum over Subsets}{section.4.2}% 22
\BOOKMARK [0][-]{chapter.5}{Game Theory}{}% 23
\BOOKMARK [1][-]{section.5.1}{NIM Games and Sprague-Grundy Theorem}{chapter.5}% 24
\BOOKMARK [1][-]{section.5.2}{Take Away Games}{chapter.5}% 25
\BOOKMARK [2][-]{subsection.5.2.1}{Identifying the Losing States}{section.5.2}% 26
\BOOKMARK [2][-]{subsection.5.2.2}{A few Example Functions}{section.5.2}% 27
\BOOKMARK [2][-]{subsection.5.2.3}{Winning Strategy}{section.5.2}% 28
\BOOKMARK [2][-]{subsection.5.2.4}{Proof of Victory}{section.5.2}% 29
\BOOKMARK [2][-]{subsection.5.2.5}{References}{section.5.2}% 30
\BOOKMARK [1][-]{section.5.3}{Finding Invarients}{chapter.5}% 31
\BOOKMARK [0][-]{chapter.6}{Mathematical Tools}{}% 32
\BOOKMARK [1][-]{section.6.1}{Fast Fourier Transforms}{chapter.6}% 33
\BOOKMARK [2][-]{subsection.6.1.1}{Motivation and Purpose}{section.6.1}% 34
\BOOKMARK [2][-]{subsection.6.1.2}{Algorithm}{section.6.1}% 35
\BOOKMARK [2][-]{subsection.6.1.3}{Some Mathematical Representations}{section.6.1}% 36
\BOOKMARK [2][-]{subsection.6.1.4}{Inverse Fourier Transform}{section.6.1}% 37
\BOOKMARK [2][-]{subsection.6.1.5}{Number Theoretic Transforms}{section.6.1}% 38
\BOOKMARK [2][-]{subsection.6.1.6}{Code Sample}{section.6.1}% 39
\BOOKMARK [1][-]{section.6.2}{Group Theory}{chapter.6}% 40
\BOOKMARK [2][-]{subsection.6.2.1}{Burnside's Lemma}{section.6.2}% 41
\BOOKMARK [1][-]{section.6.3}{Number Theory}{chapter.6}% 42
\BOOKMARK [2][-]{subsection.6.3.1}{Stern-Brocot Tree}{section.6.3}% 43
\BOOKMARK [2][-]{subsection.6.3.2}{GCD and Divisors}{section.6.3}% 44
\BOOKMARK [1][-]{section.6.4}{Geometry}{chapter.6}% 45
\BOOKMARK [2][-]{subsection.6.4.1}{Graham Scan for Convex Hull}{section.6.4}% 46
\BOOKMARK [0][-]{chapter.7}{Graphs and Tree}{}% 47
\BOOKMARK [1][-]{section.7.1}{Trees}{chapter.7}% 48
\BOOKMARK [2][-]{subsection.7.1.1}{Heavy Light Decomposition}{section.7.1}% 49
\BOOKMARK [1][-]{section.7.2}{Basic Algorithms on Graphs}{chapter.7}% 50
\BOOKMARK [2][-]{subsection.7.2.1}{List of algorithms}{section.7.2}% 51
\BOOKMARK [2][-]{subsection.7.2.2}{Code}{section.7.2}% 52
\BOOKMARK [0][-]{chapter.8}{Flow Algorithms}{}% 53
\BOOKMARK [1][-]{section.8.1}{Some interesting types of Flows}{chapter.8}% 54
\BOOKMARK [2][-]{subsection.8.1.1}{Circulation Flows}{section.8.1}% 55
\BOOKMARK [1][-]{section.8.2}{Chains in Posets}{chapter.8}% 56
\BOOKMARK [0][-]{chapter.9}{Problem Solving Strategies}{}% 57
\BOOKMARK [1][-]{section.9.1}{General Advice and Basic Patters}{chapter.9}% 58
\BOOKMARK [1][-]{section.9.2}{List of Algorithms and Ideas we know}{chapter.9}% 59
